C:\Users\Palani\IdeaProjects\SriniTest\src\main\java\PageObjectModule\Commonfns.java
C:\Users\Palani\IdeaProjects\SriniTest\src\main\java\step_definitions\CasperSteps.java
C:\Users\Palani\IdeaProjects\SriniTest\src\main\java\Runner.java
